SystemX/SystemX.vcd
$date
  Wed Mar 09 19:16:57 2022
$end
$version
  GHDL v0
$end
$timescale
  1 fs
$end
$var reg 1 ! a_tb $end
$var reg 1 " b_tb $end
$var reg 1 # c_tb $end
$var reg 1 $ f_tb $end
$scope module dut $end
$var reg 1 % a $end
$var reg 1 & b $end
$var reg 1 ' c $end
$var reg 1 ( f $end
$var reg 1 ) an $end
$var reg 1 * bn $end
$var reg 1 + cn $end
$var reg 1 , m0 $end
$var reg 1 - m2 $end
$var reg 1 . m6 $end
$upscope $end
$enddefinitions $end
#0
0!
0"
0#
1$
0%
0&
0'
1(
1)
1*
1+
1,
0-
0.
#10000000
1#
0$
1'
0(
0+
0,
#20000000
1"
0#
1$
1&
0'
1(
0*
1+
1-
#30000000
1#
0$
1'
0(
0+
0-
#40000000
1!
0"
0#
1%
0&
0'
0)
1*
1+
#50000000
1#
1'
0+
#60000000
1"
0#
1$
1&
0'
1(
0*
1+
1.
#70000000
1#
0$
1'
0(
0+
0.
#80000000
0!
0"
0#
1$
0%
0&
0'
1(
1)
1*
1+
1,
#90000000
1#
0$
1'
0(
0+
0,
